Client,Durée intervention,Date,Début time window,Fin time window0,1:00,14/02/2017,9:15,22:15
1,2:00,14/02/2017,9:30,14:30
4,1:00,14/02/2017,13:45,16:30
6,2:00,14/02/2017,13:30,17:15
7,2:00,14/02/2017,14:00,19:00
10,2:00,14/02/2017,13:30,18:30
11,1:00,14/02/2017,15:45,18:30
11,2:00,14/02/2017,8:15,12:00
12,3:00,14/02/2017,12:45,17:30
19,2:00,14/02/2017,10:00,15:00
20,1:00,14/02/2017,11:00,15:00
20,1:00,14/02/2017,17:30,19:30
25,2:00,14/02/2017,14:45,18:30
27,3:00,14/02/2017,13:00,17:45
28,1:00,14/02/2017,10:30,14:30
29,0:30,14/02/2017,12:15,13:45
30,2:00,14/02/2017,14:00,17:00
33,2:00,14/02/2017,8:45,11:15
35,3:00,14/02/2017,8:15,13:00
39,1:00,14/02/2017,8:00,9:30
50,1:00,14/02/2017,6:30,19:30
52,3:00,14/02/2017,9:45,14:30
55,1:30,14/02/2017,14:45,19:15
59,0:30,14/02/2017,11:30,13:00
59,2:00,14/02/2017,7:45,11:30
59,0:30,14/02/2017,17:15,18:15
60,1:00,14/02/2017,8:15,11:00
60,1:00,14/02/2017,9:30,19:30
62,2:00,14/02/2017,11:30,14:30
64,1:30,14/02/2017,16:30,19:00
64,1:30,14/02/2017,10:00,14:30
70,2:00,14/02/2017,8:15,12:00
71,2:00,14/02/2017,13:30,16:30
78,1:00,14/02/2017,10:30,13:15
78,1:30,14/02/2017,13:45,17:00
79,2:00,14/02/2017,7:15,11:00
82,2:00,14/02/2017,8:30,19:30
82,1:00,14/02/2017,17:15,20:00
88,3:00,14/02/2017,11:45,16:30
89,2:00,14/02/2017,11:45,19:45
92,2:00,14/02/2017,7:45,11:30
95,2:00,14/02/2017,9:30,12:30
96,2:00,14/02/2017,10:15,15:15
99,1:00,14/02/2017,7:00,9:45
111,2:00,14/02/2017,8:30,13:30
112,2:00,14/02/2017,8:00,11:45
113,3:00,14/02/2017,13:45,18:30
117,1:00,14/02/2017,11:45,13:45
119,1:00,14/02/2017,9:30,11:00
120,2:00,14/02/2017,13:00,18:00
121,2:30,14/02/2017,8:30,14:00
122,2:00,14/02/2017,8:15,12:00
123,2:00,14/02/2017,7:00,20:00
126,2:00,14/02/2017,7:15,12:15
129,2:00,14/02/2017,8:15,12:00
135,3:30,14/02/2017,12:15,18:45
137,2:00,14/02/2017,14:00,19:00
138,1:00,14/02/2017,15:30,19:30
138,1:00,14/02/2017,9:45,13:45
139,1:30,14/02/2017,10:30,13:00
142,2:30,14/02/2017,12:45,18:15
144,1:00,14/02/2017,8:15,11:00
144,1:00,14/02/2017,11:30,15:30
144,1:00,14/02/2017,17:00,20:00
146,2:00,14/02/2017,9:15,14:15
153,1:00,14/02/2017,16:45,19:45
154,1:00,14/02/2017,10:15,14:15
156,1:30,14/02/2017,15:30,20:00
158,2:00,14/02/2017,13:15,15:45
162,1:30,14/02/2017,9:00,13:30
164,1:30,14/02/2017,13:45,17:00
165,2:15,14/02/2017,13:00,19:15
165,6:45,14/02/2017,7:15,17:00
167,2:00,14/02/2017,8:15,12:00
168,3:00,14/02/2017,8:30,12:30
169,1:30,14/02/2017,8:45,10:45
170,1:30,14/02/2017,15:00,18:15
181,2:00,14/02/2017,8:30,13:30
188,1:00,14/02/2017,17:30,19:30
188,1:00,14/02/2017,11:15,15:15
190,1:00,14/02/2017,11:00,13:45